{
  "board": {
    "active_layer": 36,
    "active_layer_preset": "",
    "auto_track_width": false,
    "hidden_netclasses": [],
    "hidden_nets": [],
    "high_contrast_mode": 0,
    "net_color_mode": 1,
    "opacity": {
      "images": 1.0,
      "pads": 1.0,
      "tracks": 1.0,
      "vias": 1.0,
      "zones": 0.6399999856948853
    },
    "selection_filter": {
      "dimensions": true,
      "footprints": true,
      "graphics": true,
      "keepouts": true,
      "lockedItems": true,
      "otherItems": true,
      "pads": true,
      "text": true,
      "tracks": true,
      "vias": true,
      "zones": true
    },
    "visible_items": [
      0,
      1,
      2,
      3,
      4,
      5,
      8,
      9,
      10,
      11,
      12,
      13,
      15,
      16,
      18,
      19,
      20,
      21,
      22,
      23,
      24,
      25,
      26,
      27,
      28,
      29,
      30,
      32,
      33,
      34,
      35,
      36,
      40
    ],
    "visible_layers": "fffffff_ffffffff",
    "zone_display_mode": 0
  },
  "git": {
    "repo_password": "",
    "repo_type": "",
    "repo_username": "",
    "ssh_key": ""
  },
  "meta": {
    "filename": "uCurrent++.kicad_prl",
    "version": 3
  },
  "net_inspector_panel": {
    "col_hidden": [
      false,
      false,
      false,
      false,
      false,
      false,
      false,
      false,
      false,
      false
    ],
    "col_order": [
      0,
      1,
      2,
      3,
      4,
      5,
      6,
      7,
      8,
      9
    ],
    "col_widths": [
      0,
      0,
      0,
      0,
      0,
      0,
      0,
      0,
      0,
      0
    ],
    "custom_group_rules": [],
    "expanded_rows": [],
    "filter_by_net_name": true,
    "filter_by_netclass": true,
    "filter_text": "",
    "group_by_constraint": false,
    "group_by_netclass": false,
    "show_unconnected_nets": false,
    "show_zero_pad_nets": false,
    "sort_ascending": true,
    "sorting_column": 0
  },
  "project": {
    "files": []
  },
  "schematic": {
    "selection_filter": {
      "graphics": true,
      "images": true,
      "labels": true,
      "lockedItems": false,
      "otherItems": true,
      "pins": true,
      "symbols": true,
      "text": true,
      "wires": true
    }
  }
}
