(footprint "653102131822"
	(version 20240617)
	(generator "pcbnew")
	(generator_version "8.99")
	(layer "F.Cu")
	(descr "WR-WTB 1.25mm SMT Male Horizontal Shrouded Header, 2 Pins")
	(property "Reference" "REF**"
		(at 0.115 -2.255 0)
		(layer "F.SilkS")
		(uuid "b105ee1f-38d4-42c0-92ff-0e1ff9e289d1")
		(effects
			(font
				(size 1 1)
				(thickness 0.15)
			)
		)
	)
	(property "Value" "653102131822"
		(at 4.3225 5.8875 0)
		(layer "F.Fab")
		(uuid "b3c66c62-9816-437a-af17-fd91680a16f8")
		(effects
			(font
				(size 1 1)
				(thickness 0.15)
			)
		)
	)
	(property "Footprint" ""
		(at 0 0 0)
		(layer "F.Fab")
		(hide yes)
		(uuid "33894f5c-0525-4805-89b0-01c8ba9c40aa")
		(effects
			(font
				(size 1.27 1.27)
				(thickness 0.15)
			)
		)
	)
	(property "Datasheet" ""
		(at 0 0 0)
		(layer "F.Fab")
		(hide yes)
		(uuid "8fed78a2-b7fc-4239-b658-ab8131f34612")
		(effects
			(font
				(size 1.27 1.27)
				(thickness 0.15)
			)
		)
	)
	(property "Description" ""
		(at 0 0 0)
		(layer "F.Fab")
		(hide yes)
		(uuid "3ff0e8c6-46b7-4465-9716-0c3abf89f823")
		(effects
			(font
				(size 1.27 1.27)
				(thickness 0.15)
			)
		)
	)
	(attr smd)
	(fp_line
		(start -3.625 0.6)
		(end -3.625 1.21)
		(stroke
			(width 0.127)
			(type solid)
		)
		(layer "F.SilkS")
		(uuid "e26a52f9-71a0-46d6-a7a8-3103aed71688")
	)
	(fp_line
		(start -3.625 4.59)
		(end -3.625 4.8)
		(stroke
			(width 0.127)
			(type solid)
		)
		(layer "F.SilkS")
		(uuid "a86a17a9-b07f-45b5-9240-7402741f23c5")
	)
	(fp_line
		(start -3.625 4.8)
		(end 3.625 4.8)
		(stroke
			(width 0.127)
			(type solid)
		)
		(layer "F.SilkS")
		(uuid "8c2dc9d9-4814-42b0-aef7-8169b0d527cb")
	)
	(fp_line
		(start -1.27 0.6)
		(end -3.625 0.6)
		(stroke
			(width 0.127)
			(type solid)
		)
		(layer "F.SilkS")
		(uuid "d1e05823-4064-4d69-832a-79f7f733ae63")
	)
	(fp_line
		(start 1.23 0.6)
		(end 3.625 0.6)
		(stroke
			(width 0.127)
			(type solid)
		)
		(layer "F.SilkS")
		(uuid "3df34593-ed08-4a42-bd59-b6a6170c96a6")
	)
	(fp_line
		(start 3.625 0.6)
		(end 3.625 1.19)
		(stroke
			(width 0.127)
			(type solid)
		)
		(layer "F.SilkS")
		(uuid "669a2103-24a3-4c99-9b6d-ece4525533ce")
	)
	(fp_line
		(start 3.625 4.8)
		(end 3.625 4.59)
		(stroke
			(width 0.127)
			(type solid)
		)
		(layer "F.SilkS")
		(uuid "a33da21e-2166-4940-b0f7-a72732391919")
	)
	(fp_poly
		(pts
			(xy -4.5 -1) (xy 4.5 -1) (xy 4.5 5.05) (xy -4.5 5.05)
		)
		(stroke
			(width 0.127)
			(type solid)
		)
		(fill solid)
		(layer "F.CrtYd")
		(uuid "e9117350-1575-4106-9869-88eb9bc79699")
	)
	(fp_line
		(start -3.625 0.6)
		(end 3.625 0.6)
		(stroke
			(width 0.127)
			(type solid)
		)
		(layer "F.Fab")
		(uuid "dc88abcd-4027-4eed-9322-787d1959d916")
	)
	(fp_line
		(start -3.625 4.8)
		(end -3.625 0.6)
		(stroke
			(width 0.127)
			(type solid)
		)
		(layer "F.Fab")
		(uuid "14d7b3bf-178e-4975-ba27-49ff6485ca4f")
	)
	(fp_line
		(start 3.625 0.6)
		(end 3.625 4.8)
		(stroke
			(width 0.127)
			(type solid)
		)
		(layer "F.Fab")
		(uuid "0d8cf3c5-3a08-431e-a10a-34b55ced3820")
	)
	(fp_line
		(start 3.625 4.8)
		(end -3.625 4.8)
		(stroke
			(width 0.127)
			(type solid)
		)
		(layer "F.Fab")
		(uuid "aa4a5b28-28ee-4a9b-b43f-f775d848a669")
	)
	(fp_text user "1"
		(at -1.2 2.415 0)
		(layer "F.SilkS")
		(uuid "8e3c219e-f08f-4b15-b867-3355e8786a9c")
		(effects
			(font
				(size 1 1)
				(thickness 0.15)
			)
		)
	)
	(fp_text user "1"
		(at -1.2 2.415 0)
		(layer "F.Fab")
		(uuid "7bc796bc-d4b3-4f08-a1e6-5a6a4a8cb858")
		(effects
			(font
				(size 1 1)
				(thickness 0.15)
			)
		)
	)
	(pad "1" smd rect
		(at -0.625 0)
		(size 0.81 1.6)
		(layers "F.Cu" "F.Paste" "F.Mask")
		(solder_mask_margin 0.102)
		(uuid "a97a6b47-5b3f-428b-a071-a5c5265ec09e")
	)
	(pad "2" smd rect
		(at 0.625 0)
		(size 0.81 1.6)
		(layers "F.Cu" "F.Paste" "F.Mask")
		(solder_mask_margin 0.102)
		(uuid "e7bdaf9c-3ec8-4a64-9883-3d3e3485e2fb")
	)
	(pad "Z1" smd rect
		(at -3.175 2.9)
		(size 2.1 3)
		(layers "F.Cu" "F.Paste" "F.Mask")
		(solder_mask_margin 0.102)
		(uuid "7b3a677b-0404-43f7-ad98-c9431440db30")
	)
	(pad "Z2" smd rect
		(at 3.175 2.9)
		(size 2.1 3)
		(layers "F.Cu" "F.Paste" "F.Mask")
		(solder_mask_margin 0.102)
		(uuid "96ad6b87-9c49-4cf8-8bb9-63264c828765")
	)
)
