(footprint "Black_Binding_Post"
	(version 20240617)
	(generator "pcbnew")
	(generator_version "8.99")
	(layer "F.Cu")
	(descr "Mounting Hole 6mm")
	(tags "mounting hole 6mm")
	(property "Reference" "REF**"
		(at 0 -7 0)
		(layer "F.SilkS")
		(uuid "e7da8787-4ee4-4b87-8620-f9af242d2196")
		(effects
			(font
				(size 1 1)
				(thickness 0.15)
			)
		)
	)
	(property "Value" "Black_Binding_Post"
		(at 0 7 0)
		(layer "F.Fab")
		(uuid "db474fb6-75a2-450a-8f53-4e6a701afc51")
		(effects
			(font
				(size 1 1)
				(thickness 0.15)
			)
		)
	)
	(property "Footprint" ""
		(at 0 0 0)
		(unlocked yes)
		(layer "F.Fab")
		(hide yes)
		(uuid "588417ea-63b2-4bea-a61b-0ab4612245c6")
		(effects
			(font
				(size 1.27 1.27)
				(thickness 0.15)
			)
		)
	)
	(property "Datasheet" ""
		(at 0 0 0)
		(unlocked yes)
		(layer "F.Fab")
		(hide yes)
		(uuid "310135fc-faba-4a49-baf0-e748c0b8ae40")
		(effects
			(font
				(size 1.27 1.27)
				(thickness 0.15)
			)
		)
	)
	(property "Description" ""
		(at 0 0 0)
		(unlocked yes)
		(layer "F.Fab")
		(hide yes)
		(uuid "07d3ba15-703d-41b3-96f8-15af854f0632")
		(effects
			(font
				(size 1.27 1.27)
				(thickness 0.15)
			)
		)
	)
	(attr exclude_from_pos_files exclude_from_bom)
	(fp_circle
		(center 0 0)
		(end 5.75 0)
		(stroke
			(width 0.15)
			(type solid)
		)
		(fill none)
		(layer "Cmts.User")
		(uuid "ddd9b5d1-c19a-4877-b992-af75492d2cb2")
	)
	(fp_circle
		(center 0 0)
		(end 6 0)
		(stroke
			(width 0.05)
			(type solid)
		)
		(fill none)
		(layer "F.CrtYd")
		(uuid "d5591003-a9db-4e77-9b6f-4b4f5b473692")
	)
	(fp_text user "${REFERENCE}"
		(at 0 0 0)
		(layer "F.Fab")
		(uuid "3b1a6d78-ecf1-47f6-85be-977dfc312516")
		(effects
			(font
				(size 1 1)
				(thickness 0.15)
			)
		)
	)
	(pad "1" thru_hole circle
		(at 0 0)
		(size 11.5 11.5)
		(drill 4.37)
		(layers "*.Cu" "*.Mask")
		(remove_unused_layers no)
		(uuid "7e6a2906-57a3-4f14-8e98-43c4faab7713")
	)
	(model "/home/sfalco/kicad/libs/3dmodels/falco_CINCH.3dshapes/black.step"
		(offset
			(xyz 0 0 26.7)
		)
		(scale
			(xyz 1 1 1)
		)
		(rotate
			(xyz -0 -90 -0)
		)
	)
)
