(footprint "ROS-51K101-400A5_V"
	(version 20240617)
	(generator "pcbnew")
	(generator_version "8.99")
	(layer "F.Cu")
	(property "Reference" "REF**"
		(at 0 -6.79985 0)
		(layer "F.SilkS")
		(uuid "930109df-4835-4f0c-88ce-dbdc1f8b45f8")
		(effects
			(font
				(size 1 1)
				(thickness 0.15)
			)
		)
	)
	(property "Value" "ROS-51K101-400A5_V"
		(at 0 6.79985 0)
		(layer "F.Fab")
		(uuid "c7c1ea77-fc2e-46f1-98ef-73d9f18d1094")
		(effects
			(font
				(size 1 1)
				(thickness 0.15)
			)
		)
	)
	(property "Footprint" ""
		(at 0 0 0)
		(layer "F.Fab")
		(hide yes)
		(uuid "cd2b0b59-84a4-4f68-a9e1-82b500b62662")
		(effects
			(font
				(size 1 1)
				(thickness 0.15)
			)
		)
	)
	(property "Datasheet" ""
		(at 0 0 0)
		(layer "F.Fab")
		(hide yes)
		(uuid "23ef1190-d8bd-4b01-9ff0-e1b82a2b92a4")
		(effects
			(font
				(size 1 1)
				(thickness 0.15)
			)
		)
	)
	(property "Description" ""
		(at 0 0 0)
		(layer "F.Fab")
		(hide yes)
		(uuid "797a89ab-11e1-46ae-a923-e1c3bf14d5a8")
		(effects
			(font
				(size 1 1)
				(thickness 0.15)
			)
		)
	)
	(fp_line
		(start -5.99985 4.09)
		(end -5.99985 -4.09)
		(stroke
			(width 0.2)
			(type solid)
		)
		(layer "F.SilkS")
		(uuid "927a2214-55e6-4b41-8aef-202dfb1f7d79")
	)
	(fp_line
		(start -4.09 -5.99985)
		(end 4.09 -5.99985)
		(stroke
			(width 0.2)
			(type solid)
		)
		(layer "F.SilkS")
		(uuid "fd6e0aa7-db6e-4368-ae98-9cdf948ea7b6")
	)
	(fp_line
		(start -4.09 5.99985)
		(end 4.09 5.99985)
		(stroke
			(width 0.2)
			(type solid)
		)
		(layer "F.SilkS")
		(uuid "ad2e5576-61da-44ef-8d19-23cf299eb5c5")
	)
	(fp_line
		(start 5.99985 4.09)
		(end 5.99985 -4.09)
		(stroke
			(width 0.2)
			(type solid)
		)
		(layer "F.SilkS")
		(uuid "397bb0f4-75ab-4c8d-aaa3-0e5f4c682c6b")
	)
	(fp_line
		(start -6.1 -6.1)
		(end 6.1 -6.1)
		(stroke
			(width 0.05)
			(type solid)
		)
		(layer "Eco2.User")
		(uuid "6771517c-c887-492c-8f84-c0cd197f7c86")
	)
	(fp_line
		(start -6.1 6.1)
		(end -6.1 -6.1)
		(stroke
			(width 0.05)
			(type solid)
		)
		(layer "Eco2.User")
		(uuid "bb786722-70c0-42b9-957d-2fed194c91d6")
	)
	(fp_line
		(start -6.1 6.1)
		(end 6.1 6.1)
		(stroke
			(width 0.05)
			(type solid)
		)
		(layer "Eco2.User")
		(uuid "21cf7208-8ea3-40ed-a708-59233e022fec")
	)
	(fp_line
		(start -0.5 0)
		(end 0.5 0)
		(stroke
			(width 0.1)
			(type solid)
		)
		(layer "Eco2.User")
		(uuid "32ec0023-8b44-4fd3-9822-3a0ba79a2cc9")
	)
	(fp_line
		(start 0 0.5)
		(end 0 -0.5)
		(stroke
			(width 0.1)
			(type solid)
		)
		(layer "Eco2.User")
		(uuid "d1be28a5-cc48-4918-b3e2-65e1e480b492")
	)
	(fp_line
		(start 6.1 6.1)
		(end 6.1 -6.1)
		(stroke
			(width 0.05)
			(type solid)
		)
		(layer "Eco2.User")
		(uuid "ec571f4a-1409-42ec-beb1-b1466000517f")
	)
	(fp_line
		(start -5.99993 -5.29437)
		(end -5.29413 -6.00017)
		(stroke
			(width 0.1)
			(type solid)
		)
		(layer "B.Fab")
		(uuid "41d8d962-8522-42b5-bc00-61575d5697df")
	)
	(fp_line
		(start -5.99993 5.29439)
		(end -5.99993 -5.29437)
		(stroke
			(width 0.1)
			(type solid)
		)
		(layer "B.Fab")
		(uuid "03e78340-4c8c-42d8-9c8f-4f7804f46f5b")
	)
	(fp_line
		(start -5.99993 5.29439)
		(end -5.29447 5.99985)
		(stroke
			(width 0.1)
			(type solid)
		)
		(layer "B.Fab")
		(uuid "d5cb8b90-55ee-4268-b271-2807cd451be6")
	)
	(fp_line
		(start -5.45016 -0.95223)
		(end -4.699 -0.95223)
		(stroke
			(width 0.1)
			(type solid)
		)
		(layer "B.Fab")
		(uuid "990ef044-0452-4017-97d8-69f3f2641384")
	)
	(fp_line
		(start -5.45016 0.95)
		(end -5.45016 -0.95223)
		(stroke
			(width 0.1)
			(type solid)
		)
		(layer "B.Fab")
		(uuid "79a12e99-e7e9-44cf-93df-b640062ebb66")
	)
	(fp_line
		(start -5.45016 0.95)
		(end -4.699 0.95)
		(stroke
			(width 0.1)
			(type solid)
		)
		(layer "B.Fab")
		(uuid "db3674a8-2446-4d6e-bca6-a664d9cf62ee")
	)
	(fp_line
		(start -5.29447 5.99985)
		(end 5.29429 5.99985)
		(stroke
			(width 0.1)
			(type solid)
		)
		(layer "B.Fab")
		(uuid "e15b96dc-bc3c-46e8-a12e-aed1ae5b1db9")
	)
	(fp_line
		(start -5.29413 -6.00017)
		(end 5.29397 -6.00017)
		(stroke
			(width 0.1)
			(type solid)
		)
		(layer "B.Fab")
		(uuid "15566ee5-5196-4097-9a25-7e611dfe4990")
	)
	(fp_line
		(start -1.08988 -0.14988)
		(end -0.68389 -0.14988)
		(stroke
			(width 0.1)
			(type solid)
		)
		(layer "B.Fab")
		(uuid "cf43a067-c06d-4324-8d84-445f14b20420")
	)
	(fp_line
		(start -1.08988 0.15004)
		(end -1.08988 -0.14988)
		(stroke
			(width 0.1)
			(type solid)
		)
		(layer "B.Fab")
		(uuid "063cd3d8-fee0-4710-9792-abd1cc890430")
	)
	(fp_line
		(start -1.08988 0.15004)
		(end -0.68389 0.15004)
		(stroke
			(width 0.1)
			(type solid)
		)
		(layer "B.Fab")
		(uuid "44a5d091-3e2a-4ca1-ac32-e0d726ebac4c")
	)
	(fp_line
		(start -0.15004 -1.0898)
		(end 0.14988 -1.0898)
		(stroke
			(width 0.1)
			(type solid)
		)
		(layer "B.Fab")
		(uuid "47fa814a-b30f-4d61-a017-933dfb50b9ab")
	)
	(fp_line
		(start -0.15004 -0.68381)
		(end -0.15004 -1.0898)
		(stroke
			(width 0.1)
			(type solid)
		)
		(layer "B.Fab")
		(uuid "8880234e-3543-49ad-b05f-dcdc166ec82d")
	)
	(fp_line
		(start -0.14996 1.0898)
		(end -0.14996 0.68381)
		(stroke
			(width 0.1)
			(type solid)
		)
		(layer "B.Fab")
		(uuid "e6a646e6-1d78-4d8b-9e99-c97d97afb7db")
	)
	(fp_line
		(start -0.14996 1.0898)
		(end 0.14996 1.0898)
		(stroke
			(width 0.1)
			(type solid)
		)
		(layer "B.Fab")
		(uuid "9f1f6e92-3814-4945-89ea-6abb827bd1d4")
	)
	(fp_line
		(start 0.14988 -0.68381)
		(end 0.14988 -1.0898)
		(stroke
			(width 0.1)
			(type solid)
		)
		(layer "B.Fab")
		(uuid "5278cffe-721b-44f1-b78d-fa6d21120e9b")
	)
	(fp_line
		(start 0.14996 1.0898)
		(end 0.14996 0.68381)
		(stroke
			(width 0.1)
			(type solid)
		)
		(layer "B.Fab")
		(uuid "0eebdc8d-495f-48aa-afd0-8ddbf00d5ad1")
	)
	(fp_line
		(start 0.68381 -0.15004)
		(end 1.0898 -0.15004)
		(stroke
			(width 0.1)
			(type solid)
		)
		(layer "B.Fab")
		(uuid "e13bfa4a-1a63-41f6-9681-fc07da0f5e7b")
	)
	(fp_line
		(start 0.68381 0.14988)
		(end 1.0898 0.14988)
		(stroke
			(width 0.1)
			(type solid)
		)
		(layer "B.Fab")
		(uuid "c7c1710f-c6c3-4431-bd64-d653fb328821")
	)
	(fp_line
		(start 1.0898 0.14988)
		(end 1.0898 -0.15004)
		(stroke
			(width 0.1)
			(type solid)
		)
		(layer "B.Fab")
		(uuid "9d3e537a-031e-4058-8851-cbfe70c42b58")
	)
	(fp_line
		(start 4.699 -0.95223)
		(end 5.45 -0.95223)
		(stroke
			(width 0.1)
			(type solid)
		)
		(layer "B.Fab")
		(uuid "6ba182c7-f893-447a-b9b3-02c5baa76afe")
	)
	(fp_line
		(start 4.699 0.95)
		(end 5.45 0.95)
		(stroke
			(width 0.1)
			(type solid)
		)
		(layer "B.Fab")
		(uuid "402087bf-e5dc-4ff7-a550-7d732b241134")
	)
	(fp_line
		(start 5.29397 -6.00017)
		(end 6.00009 -5.29405)
		(stroke
			(width 0.1)
			(type solid)
		)
		(layer "B.Fab")
		(uuid "c287636c-a608-4ec5-af9b-6e38eebd2e66")
	)
	(fp_line
		(start 5.29429 5.99985)
		(end 6.00009 5.29405)
		(stroke
			(width 0.1)
			(type solid)
		)
		(layer "B.Fab")
		(uuid "fcdd40cc-c44c-4fc2-88fd-9250d0bab4c7")
	)
	(fp_line
		(start 5.45 0.95)
		(end 5.45 -0.95223)
		(stroke
			(width 0.1)
			(type solid)
		)
		(layer "B.Fab")
		(uuid "7ad47395-9b97-4280-84c0-6772de4b2b86")
	)
	(fp_line
		(start 6.00009 5.29405)
		(end 6.00009 -5.29405)
		(stroke
			(width 0.1)
			(type solid)
		)
		(layer "B.Fab")
		(uuid "b783f5ef-e5cb-41a9-80de-899b9b082606")
	)
	(fp_arc
		(start -0.989032 -0.148237)
		(mid -0.70721 -0.707083)
		(end -0.148383 -0.988942)
		(stroke
			(width 0.1)
			(type solid)
		)
		(layer "B.Fab")
		(uuid "f3893734-001b-418d-93d8-b758ded12d3d")
	)
	(fp_arc
		(start -0.683908 -0.149979)
		(mid -0.49391 -0.496263)
		(end -0.146727 -0.684613)
		(stroke
			(width 0.1)
			(type solid)
		)
		(layer "B.Fab")
		(uuid "818ada2c-c6f7-4df6-8135-d6c53ec30174")
	)
	(fp_arc
		(start -0.149979 0.683908)
		(mid -0.496263 0.49391)
		(end -0.684613 0.146727)
		(stroke
			(width 0.1)
			(type solid)
		)
		(layer "B.Fab")
		(uuid "99f0b76b-fb80-44f8-bfff-1b0baff59f8e")
	)
	(fp_arc
		(start -0.148317 0.988952)
		(mid -0.707163 0.70713)
		(end -0.989022 0.148303)
		(stroke
			(width 0.1)
			(type solid)
		)
		(layer "B.Fab")
		(uuid "3b1786bd-89de-4844-abc9-5f56932828e1")
	)
	(fp_arc
		(start 0.148157 -0.988952)
		(mid 0.707003 -0.70713)
		(end 0.988862 -0.148303)
		(stroke
			(width 0.1)
			(type solid)
		)
		(layer "B.Fab")
		(uuid "9569f0ee-211c-40f8-a297-4c02a67cc304")
	)
	(fp_arc
		(start 0.149899 -0.683908)
		(mid 0.496183 -0.49391)
		(end 0.684533 -0.146727)
		(stroke
			(width 0.1)
			(type solid)
		)
		(layer "B.Fab")
		(uuid "10fe6f39-c544-4aae-9c78-52523acf1d97")
	)
	(fp_arc
		(start 0.683908 0.149979)
		(mid 0.49391 0.496263)
		(end 0.146727 0.684613)
		(stroke
			(width 0.1)
			(type solid)
		)
		(layer "B.Fab")
		(uuid "5d9505a6-effb-4713-a727-8c4f54fa3abf")
	)
	(fp_arc
		(start 0.988872 0.148237)
		(mid 0.70705 0.707083)
		(end 0.148223 0.988942)
		(stroke
			(width 0.1)
			(type solid)
		)
		(layer "B.Fab")
		(uuid "657f1207-1f01-454e-a019-49bb8759ea72")
	)
	(fp_circle
		(center -5.05008 5.04992)
		(end -5.05008 4.44992)
		(stroke
			(width 0.1)
			(type solid)
		)
		(fill none)
		(layer "B.Fab")
		(uuid "a87a3b58-cc87-4995-827c-97b5015adf96")
	)
	(fp_circle
		(center -5.05001 -5.04993)
		(end -5.05001 -5.34993)
		(stroke
			(width 0.1)
			(type solid)
		)
		(fill none)
		(layer "B.Fab")
		(uuid "efdb347b-85cf-49ee-8540-d69858c50d4a")
	)
	(fp_circle
		(center -5.05001 5.04993)
		(end -5.05001 4.74993)
		(stroke
			(width 0.1)
			(type solid)
		)
		(fill none)
		(layer "B.Fab")
		(uuid "3954b84c-6633-42d2-b7c2-6c44269d7667")
	)
	(fp_circle
		(center -5.05 -5.05)
		(end -5.05 -5.65)
		(stroke
			(width 0.1)
			(type solid)
		)
		(fill none)
		(layer "B.Fab")
		(uuid "60155486-ba52-469e-b722-d80cda1ce084")
	)
	(fp_circle
		(center -0.00008 0)
		(end -0.00008 -5.89995)
		(stroke
			(width 0.1)
			(type solid)
		)
		(fill none)
		(layer "B.Fab")
		(uuid "16c5bc26-111a-418f-aee0-6218cde65b34")
	)
	(fp_circle
		(center -0.00008 0)
		(end -0.00008 -4.81)
		(stroke
			(width 0.1)
			(type solid)
		)
		(fill none)
		(layer "B.Fab")
		(uuid "3fac3355-dd43-44ac-8e6a-58564f2d6168")
	)
	(fp_circle
		(center -0.00008 0)
		(end -0.00008 -2.06012)
		(stroke
			(width 0.1)
			(type solid)
		)
		(fill none)
		(layer "B.Fab")
		(uuid "4c1200dc-6112-493b-9960-c34b640a3931")
	)
	(fp_circle
		(center -0.00008 0)
		(end -0.00008 -0.45)
		(stroke
			(width 0.1)
			(type solid)
		)
		(fill none)
		(layer "B.Fab")
		(uuid "a78bc3b3-5897-4b40-8c38-cb321dd6d32e")
	)
	(fp_circle
		(center 5.04984 5.05)
		(end 5.04984 4.45)
		(stroke
			(width 0.1)
			(type solid)
		)
		(fill none)
		(layer "B.Fab")
		(uuid "e8c25535-80fe-4851-a5e1-05f90857f110")
	)
	(fp_circle
		(center 5.04985 -5.04993)
		(end 5.04985 -5.34993)
		(stroke
			(width 0.1)
			(type solid)
		)
		(fill none)
		(layer "B.Fab")
		(uuid "76969423-fe35-440f-beaa-97d7a7dad90a")
	)
	(fp_circle
		(center 5.04985 5.04993)
		(end 5.04985 4.74993)
		(stroke
			(width 0.1)
			(type solid)
		)
		(fill none)
		(layer "B.Fab")
		(uuid "e11bdf60-bb16-44e5-a77e-0a67923649de")
	)
	(fp_circle
		(center 5.04992 -5.04992)
		(end 5.04992 -5.64992)
		(stroke
			(width 0.1)
			(type solid)
		)
		(fill none)
		(layer "B.Fab")
		(uuid "76fd19e5-ebc5-4efe-8355-eb681efd76af")
	)
	(pad "1" thru_hole circle
		(at 0 0 180)
		(size 1.7 1.7)
		(drill 1.1)
		(layers "*.Cu" "*.Mask")
		(remove_unused_layers no)
		(thermal_bridge_angle 90)
		(uuid "ba1e8755-6f80-4588-9198-f5381043b0bf")
	)
	(pad "MH" thru_hole circle
		(at -5.05 -5.05 180)
		(size 2 2)
		(drill 1.4)
		(layers "*.Cu" "*.Mask")
		(remove_unused_layers no)
		(thermal_bridge_angle 90)
		(uuid "8f216d4a-714a-437a-ba0e-6fef0b337694")
	)
	(pad "MH" thru_hole circle
		(at -5.05 5.05 180)
		(size 2 2)
		(drill 1.4)
		(layers "*.Cu" "*.Mask")
		(remove_unused_layers no)
		(thermal_bridge_angle 90)
		(uuid "282ce249-1ec9-4092-82c3-3717786dcd2d")
	)
	(pad "MH" thru_hole circle
		(at 5.05 -5.05 180)
		(size 2 2)
		(drill 1.4)
		(layers "*.Cu" "*.Mask")
		(remove_unused_layers no)
		(thermal_bridge_angle 90)
		(uuid "cbfcd76b-72e8-4a9e-9cdf-b4b6d295ccea")
	)
	(pad "MH" thru_hole circle
		(at 5.05 5.05 180)
		(size 2 2)
		(drill 1.4)
		(layers "*.Cu" "*.Mask")
		(remove_unused_layers no)
		(thermal_bridge_angle 90)
		(uuid "5961a9d0-6a20-4d73-9ef6-4d1a6ae8580c")
	)
	(model "/home/sfalco/kicad/libs/3dmodels/falco_ROSENBERGER.3dshapes/bnc.step"
		(offset
			(xyz 0 0 0)
		)
		(scale
			(xyz 1 1 1)
		)
		(rotate
			(xyz -180 -0 -0)
		)
	)
)
